Collegiate Sports Budgets
…
As we can see the p-value is significantly lower than 0.05, so in
contrary to our expectation, there is a correlation between the expenses
and the revenues .

The R squared is above 99 percents so the correlation is very strong,
almost identical, although the information in exp_rev table shows us
that there are some big differences - the connection between investments
and revenues is changing in different sports branches.

Lets take a look in exp_rev and see the differences by looking at
profit column:

print(exp_rev,n=25)

## # A tibble: 38 x 4
##    sports             tot_sum_revenue tot_sum_expenses     profit
##    <chr>                        <dbl>            <dbl>      <dbl>
##  1 All Track Combined      2840578413       3592928928 -752350515
##  2 Archery                    4956285          4952804       3481
##  3 Badminton                  3004075          2887973     116102
##  4 Baseball                3456842954       3833906615 -377063661
##  5 Basketball             14995135589      14277977052  717158537
##  6 Beach Volleyball          75248431         96887455  -21639024
##  7 Bowling                  136360335        137428098   -1067763
##  8 Diving                     3722366          8691148   -4968782
##  9 Equestrian                92062239        141705270  -49643031
## 10 Fencing                   50690828         74953117  -24262289
## 11 Field Hockey             415798460        489488447  -73689987
## 12 Football               27619070992      18586165236 9032905756
## 13 Golf                    1638244466       1927733053 -289488587
## 14 Gymnastics               249580814        470796989 -221216175
## 15 Ice Hockey              1092628924       1145674973  -53046049
## 16 Lacrosse                1491968997       1616085611 -124116614
## 17 Other Sports             115649680        117745664   -2095984
## 18 Rifle                      7954624         13139032   -5184408
## 19 Rodeo                     68660200         66729908    1930292
## 20 Rowing                   537460512        738333145 -200872633
## 21 Sailing                   14648696         14588990      59706
## 22 Skiing                    74766603         86321881  -11555278
## 23 Soccer                  4394928966       4846526850 -451597884
## 24 Softball                2289337182       2621158795 -331821613
## 25 Squash                    49501836         46410330    3091506
## # ... with 13 more rows
…
